<?xml version="1.0" encoding="utf-8"?>
<!-- Generator: Adobe Illustrator 19.0.0, SVG Export Plug-In . SVG Version: 6.00 Build 0)  -->
<svg version="1.1" id="Layer_1" xmlns="http://www.w3.org/2000/svg" xmlns:xlink="http://www.w3.org/1999/xlink" x="0px" y="0px"
	 viewBox="0 0 96 96" style="enable-background:new 0 0 96 96;" xml:space="preserve">
<style type="text/css">
	.st0{fill:#333333;}
</style>
<g id="XMLID_5_">
	<path id="XMLID_9_" class="st0" d="M72,45.8c-1.2-11.2-10.1-20.1-21.3-21.3V19h-5.4v5.5C34.1,25.8,25.3,34.6,24,45.8h-5.5v5.4H24
		c1.2,11.2,10.1,20.1,21.3,21.3V78h5.4v-5.5C61.9,71.2,70.7,62.4,72,51.2h5.5v-5.4H72z M48,67.3c-10.4,0-18.8-8.4-18.8-18.8
		c0-10.4,8.4-18.8,18.8-18.8s18.8,8.4,18.8,18.8C66.8,58.9,58.4,67.3,48,67.3z"/>
</g>
</svg>
